<svg width="25" height="24" viewBox="0 0 25 24" fill="none" xmlns="http://www.w3.org/2000/svg">
    <path d="M12.069 0.62793C5.40352 0.62793 0 5.47241 0 11.4485C0 13.6508 0.735724 15.6982 1.99621 17.4072C1.83062 19.3817 1.35414 22.1628 0 23.5174C0 23.5174 4.13772 22.9367 6.94062 21.2441C8.49752 21.9002 10.235 22.269 12.069 22.269C18.7344 22.269 24.1379 17.4245 24.1379 11.4485C24.1379 5.47241 18.7344 0.62793 12.069 0.62793Z" fill="#55AFFF"/>
    <path d="M5.793 12.8966C6.59286 12.8966 7.24128 12.2481 7.24128 11.4483C7.24128 10.6484 6.59286 10 5.793 10C4.99314 10 4.34473 10.6484 4.34473 11.4483C4.34473 12.2481 4.99314 12.8966 5.793 12.8966Z" fill="white"/>
    <path d="M12.0694 12.8966C12.8692 12.8966 13.5176 12.2481 13.5176 11.4483C13.5176 10.6484 12.8692 10 12.0694 10C11.2695 10 10.6211 10.6484 10.6211 11.4483C10.6211 12.2481 11.2695 12.8966 12.0694 12.8966Z" fill="white"/>
    <path d="M18.3448 12.8966C19.1446 12.8966 19.793 12.2481 19.793 11.4483C19.793 10.6484 19.1446 10 18.3448 10C17.5449 10 16.8965 10.6484 16.8965 11.4483C16.8965 12.2481 17.5449 12.8966 18.3448 12.8966Z" fill="white"/>
</svg>
